Principal Component Analysis
…
We have that \(X = X_0 R\) where \(X\) are the sample position in the PC system, \(X_0\) the sample position in the original space, and \(R\) the rotation matrix.

pca_tastes$rotation 

              PC1         PC2           PC3         PC4         PC5         PC6
sweet  -0.2684148 -0.69540416  0.0002199093 -0.48304468  0.44358387 -0.11944742
sour   -0.1750094  0.01868802 -0.9815845534  0.01295745 -0.06872644 -0.02496032
bitter -0.2278208  0.64187074  0.0398821163 -0.72680576  0.06461954 -0.04568131
umami   0.5416475  0.14434247 -0.1523808153 -0.02213633  0.65865622  0.47775020
salt    0.5646513  0.04008174 -0.0868622194 -0.08733171  0.09134523 -0.80996702
fat     0.4829180 -0.28569996 -0.0643131008 -0.47972543 -0.59343271  0.31421439

pca_tastes$x %>% as_tibble()

# A tibble: 446 × 6
      PC1     PC2    PC3      PC4     PC5     PC6
    <dbl>   <dbl>  <dbl>    <dbl>   <dbl>   <dbl>
 1 -2.01  -1.01   -2.15  -0.00965  0.540  -0.147 
 2 -1.96  -1.22   -0.311 -0.535    0.908  -0.298 
 3 -2.05  -1.04   -1.22  -0.301    0.742  -0.299 
 4 -1.66  -0.0669 -1.80   0.0988   0.0553 -0.0382
 5 -0.802  0.787   0.989  1.15    -0.346   0.220 
 6  1.93   0.709  -1.25   0.638    1.82    0.337 
 7 -2.16   1.78   -0.336 -1.49     0.344  -0.250 
 8 -2.03  -0.965  -1.21  -0.358    0.693  -0.280 
 9 -1.64   1.11    0.220 -0.716    0.248  -0.0746
10 -2.11   2.46   -2.03  -1.05    -0.0759 -0.0199
# … with 436 more rows
…
